<?xml version="1.0" encoding="UTF-8"?>
<gpx version="1.0" creator="GPSBabel - http://www.gpsbabel.org" xmlns="http://www.topografix.com/GPX/1/0" xmlns:xsi="http://www.w3.org/2001/XMLSchema-instance">
  <bounds minlat="48.230520700" minlon="3.500044230" maxlat="48.496252560" maxlon="4.710359300"/>
  <trk>
    <trkseg>
      <trkpt lat="48.491823620" lon="3.500149360">
      </trkpt>
      <trkpt lat="48.491846360" lon="3.500044230">
      </trkpt>
      <trkpt lat="48.491779220" lon="3.500435200">
      </trkpt>
      <trkpt lat="48.492899670" lon="3.501826290">
      </trkpt>
      <trkpt lat="48.492767220" lon="3.501863580">
      </trkpt>
      <trkpt lat="48.492826980" lon="3.501825050">
      </trkpt>
      <trkpt lat="48.492851780" lon="3.501872510">
      </trkpt>
      <trkpt lat="48.493164560" lon="3.502326640">
      </trkpt>
      <trkpt lat="48.494860080" lon="3.505796740">
      </trkpt>
      <trkpt lat="48.496252560" lon="3.509351870">
      </trkpt>
      <trkpt lat="48.493863910" lon="3.510978750">
      </trkpt>
      <trkpt lat="48.492701580" lon="3.513419070">
      </trkpt>
      <trkpt lat="48.492597640" lon="3.518114150">
      </trkpt>
      <trkpt lat="48.490752380" lon="3.522118120">
      </trkpt>
      <trkpt lat="48.489267750" lon="3.525326470">
      </trkpt>
      <trkpt lat="48.486515500" lon="3.531210940">
      </trkpt>
      <trkpt lat="48.483983260" lon="3.536690470">
      </trkpt>
      <trkpt lat="48.481716350" lon="3.541605070">
      </trkpt>
      <trkpt lat="48.479652580" lon="3.545928200">
      </trkpt>
      <trkpt lat="48.477776720" lon="3.549973630">
      </trkpt>
      <trkpt lat="48.475761170" lon="3.555313600">
      </trkpt>
      <trkpt lat="48.472781430" lon="3.558827870">
      </trkpt>
      <trkpt lat="48.470259100" lon="3.563731040">
      </trkpt>
      <trkpt lat="48.467326460" lon="3.566832780">
      </trkpt>
      <trkpt lat="48.465963590" lon="3.571529570">
      </trkpt>
      <trkpt lat="48.464796890" lon="3.576402180">
      </trkpt>
      <trkpt lat="48.463536070" lon="3.581693960">
      </trkpt>
      <trkpt lat="48.462731920" lon="3.585783400">
      </trkpt>
      <trkpt lat="48.461442040" lon="3.589938660">
      </trkpt>
      <trkpt lat="48.459605800" lon="3.594783750">
      </trkpt>
      <trkpt lat="48.457381280" lon="3.599460230">
      </trkpt>
      <trkpt lat="48.455126890" lon="3.604265220">
      </trkpt>
      <trkpt lat="48.452989310" lon="3.608512140">
      </trkpt>
      <trkpt lat="48.450633260" lon="3.611729000">
      </trkpt>
      <trkpt lat="48.449019590" lon="3.610680060">
      </trkpt>
      <trkpt lat="48.448176880" lon="3.614552770">
      </trkpt>
      <trkpt lat="48.448052550" lon="3.620069530">
      </trkpt>
      <trkpt lat="48.448278570" lon="3.625792140">
      </trkpt>
      <trkpt lat="48.447798730" lon="3.630779940">
      </trkpt>
      <trkpt lat="48.447048800" lon="3.636140670">
      </trkpt>
      <trkpt lat="48.445195580" lon="3.640554320">
      </trkpt>
      <trkpt lat="48.443185310" lon="3.644891120">
      </trkpt>
      <trkpt lat="48.441338600" lon="3.649502730">
      </trkpt>
      <trkpt lat="48.440331480" lon="3.654571790">
      </trkpt>
      <trkpt lat="48.439342530" lon="3.658916180">
      </trkpt>
      <trkpt lat="48.438161500" lon="3.663682160">
      </trkpt>
      <trkpt lat="48.437181950" lon="3.667914020">
      </trkpt>
      <trkpt lat="48.436410430" lon="3.672391390">
      </trkpt>
      <trkpt lat="48.434121260" lon="3.676567510">
      </trkpt>
      <trkpt lat="48.432040890" lon="3.679274670">
      </trkpt>
      <trkpt lat="48.430971710" lon="3.680829560">
      </trkpt>
      <trkpt lat="48.430062740" lon="3.682203750">
      </trkpt>
      <trkpt lat="48.428878040" lon="3.684779190">
      </trkpt>
      <trkpt lat="48.427563650" lon="3.688333560">
      </trkpt>
      <trkpt lat="48.426158550" lon="3.691210380">
      </trkpt>
      <trkpt lat="48.424239540" lon="3.694657680">
      </trkpt>
      <trkpt lat="48.421580100" lon="3.699304590">
      </trkpt>
      <trkpt lat="48.417145060" lon="3.704331080">
      </trkpt>
      <trkpt lat="48.416255300" lon="3.706916460">
      </trkpt>
      <trkpt lat="48.414352150" lon="3.710754310">
      </trkpt>
      <trkpt lat="48.410217730" lon="3.715157370">
      </trkpt>
      <trkpt lat="48.406358720" lon="3.720993200">
      </trkpt>
      <trkpt lat="48.404582770" lon="3.727534760">
      </trkpt>
      <trkpt lat="48.403994640" lon="3.732462060">
      </trkpt>
      <trkpt lat="48.402818520" lon="3.737057870">
      </trkpt>
      <trkpt lat="48.402108490" lon="3.741803980">
      </trkpt>
      <trkpt lat="48.401943610" lon="3.747245610">
      </trkpt>
      <trkpt lat="48.402215390" lon="3.752081620">
      </trkpt>
      <trkpt lat="48.403048390" lon="3.756920640">
      </trkpt>
      <trkpt lat="48.403046780" lon="3.761594230">
      </trkpt>
      <trkpt lat="48.402158700" lon="3.765621210">
      </trkpt>
      <trkpt lat="48.401404060" lon="3.769965620">
      </trkpt>
      <trkpt lat="48.400372330" lon="3.774472310">
      </trkpt>
      <trkpt lat="48.399539270" lon="3.779013010">
      </trkpt>
      <trkpt lat="48.398807010" lon="3.783816930">
      </trkpt>
      <trkpt lat="48.398031500" lon="3.788328620">
      </trkpt>
      <trkpt lat="48.397197000" lon="3.793943730">
      </trkpt>
      <trkpt lat="48.396355340" lon="3.799386320">
      </trkpt>
      <trkpt lat="48.395243930" lon="3.806125310">
      </trkpt>
      <trkpt lat="48.394491190" lon="3.810957350">
      </trkpt>
      <trkpt lat="48.393679100" lon="3.815849440">
      </trkpt>
      <trkpt lat="48.392785680" lon="3.821509780">
      </trkpt>
      <trkpt lat="48.391381600" lon="3.828371740">
      </trkpt>
      <trkpt lat="48.388448030" lon="3.831430070">
      </trkpt>
      <trkpt lat="48.386200780" lon="3.834334650">
      </trkpt>
      <trkpt lat="48.384111810" lon="3.837668260">
      </trkpt>
      <trkpt lat="48.384291420" lon="3.842046390">
      </trkpt>
      <trkpt lat="48.383353010" lon="3.848698420">
      </trkpt>
      <trkpt lat="48.382435760" lon="3.857885660">
      </trkpt>
      <trkpt lat="48.382593130" lon="3.861853700">
      </trkpt>
      <trkpt lat="48.382369020" lon="3.865485330">
      </trkpt>
      <trkpt lat="48.381051840" lon="3.869566250">
      </trkpt>
      <trkpt lat="48.377647950" lon="3.877733770">
      </trkpt>
      <trkpt lat="48.375914320" lon="3.881883640">
      </trkpt>
      <trkpt lat="48.373837470" lon="3.887338150">
      </trkpt>
      <trkpt lat="48.372146970" lon="3.891747490">
      </trkpt>
      <trkpt lat="48.368835650" lon="3.901678470">
      </trkpt>
      <trkpt lat="48.368272380" lon="3.908843640">
      </trkpt>
      <trkpt lat="48.367765530" lon="3.915910100">
      </trkpt>
      <trkpt lat="48.366869760" lon="3.921468770">
      </trkpt>
      <trkpt lat="48.366113200" lon="3.925863480">
      </trkpt>
      <trkpt lat="48.365791510" lon="3.935631750">
      </trkpt>
      <trkpt lat="48.365480910" lon="3.943794540">
      </trkpt>
      <trkpt lat="48.365253860" lon="3.950466770">
      </trkpt>
      <trkpt lat="48.365035230" lon="3.957702300">
      </trkpt>
      <trkpt lat="48.364752620" lon="3.964717950">
      </trkpt>
      <trkpt lat="48.364777740" lon="3.969386900">
      </trkpt>
      <trkpt lat="48.363230010" lon="3.973605910">
      </trkpt>
      <trkpt lat="48.361233140" lon="3.978022610">
      </trkpt>
      <trkpt lat="48.359988520" lon="3.980781860">
      </trkpt>
      <trkpt lat="48.358196290" lon="3.984013130">
      </trkpt>
      <trkpt lat="48.354983850" lon="3.989008100">
      </trkpt>
      <trkpt lat="48.351899160" lon="3.993638220">
      </trkpt>
      <trkpt lat="48.349522400" lon="3.997392880">
      </trkpt>
      <trkpt lat="48.347184990" lon="4.001490000">
      </trkpt>
      <trkpt lat="48.344902370" lon="4.005288350">
      </trkpt>
      <trkpt lat="48.342304170" lon="4.009138820">
      </trkpt>
      <trkpt lat="48.339392090" lon="4.013043910">
      </trkpt>
      <trkpt lat="48.336917150" lon="4.016316870">
      </trkpt>
      <trkpt lat="48.334354240" lon="4.019543470">
      </trkpt>
      <trkpt lat="48.332608350" lon="4.021769060">
      </trkpt>
      <trkpt lat="48.332679290" lon="4.021706670">
      </trkpt>
      <trkpt lat="48.332687510" lon="4.021806920">
      </trkpt>
      <trkpt lat="48.331776520" lon="4.022814000">
      </trkpt>
      <trkpt lat="48.329329210" lon="4.025662770">
      </trkpt>
      <trkpt lat="48.326352840" lon="4.028323540">
      </trkpt>
      <trkpt lat="48.324864630" lon="4.030783000">
      </trkpt>
      <trkpt lat="48.321862190" lon="4.033587850">
      </trkpt>
      <trkpt lat="48.319662610" lon="4.035664550">
      </trkpt>
      <trkpt lat="48.317380710" lon="4.038867710">
      </trkpt>
      <trkpt lat="48.315388280" lon="4.043105040">
      </trkpt>
      <trkpt lat="48.313654090" lon="4.046695370">
      </trkpt>
      <trkpt lat="48.312014720" lon="4.049882370">
      </trkpt>
      <trkpt lat="48.309806900" lon="4.053607780">
      </trkpt>
      <trkpt lat="48.307668450" lon="4.056781540">
      </trkpt>
      <trkpt lat="48.305993240" lon="4.058956460">
      </trkpt>
      <trkpt lat="48.304229690" lon="4.059505350">
      </trkpt>
      <trkpt lat="48.303440580" lon="4.062391870">
      </trkpt>
      <trkpt lat="48.300630480" lon="4.064712990">
      </trkpt>
      <trkpt lat="48.298092730" lon="4.066682290">
      </trkpt>
      <trkpt lat="48.295411310" lon="4.067454440">
      </trkpt>
      <trkpt lat="48.295182090" lon="4.067847460">
      </trkpt>
      <trkpt lat="48.295287310" lon="4.067885410">
      </trkpt>
      <trkpt lat="48.295279670" lon="4.067888610">
      </trkpt>
      <trkpt lat="48.296919220" lon="4.068050200">
      </trkpt>
      <trkpt lat="48.295384510" lon="4.067985790">
      </trkpt>
      <trkpt lat="48.294996820" lon="4.067862180">
      </trkpt>
      <trkpt lat="48.295019740" lon="4.067847980">
      </trkpt>
      <trkpt lat="48.295025870" lon="4.067810670">
      </trkpt>
      <trkpt lat="48.294220120" lon="4.067615750">
      </trkpt>
      <trkpt lat="48.295279040" lon="4.067431260">
      </trkpt>
      <trkpt lat="48.295495650" lon="4.067641130">
      </trkpt>
      <trkpt lat="48.295219150" lon="4.067733580">
      </trkpt>
      <trkpt lat="48.295196110" lon="4.067760610">
      </trkpt>
      <trkpt lat="48.295050270" lon="4.067925160">
      </trkpt>
      <trkpt lat="48.295109050" lon="4.067927800">
      </trkpt>
      <trkpt lat="48.295137490" lon="4.067898690">
      </trkpt>
      <trkpt lat="48.295163770" lon="4.067849120">
      </trkpt>
      <trkpt lat="48.295167600" lon="4.067794580">
      </trkpt>
      <trkpt lat="48.295535640" lon="4.067406650">
      </trkpt>
      <trkpt lat="48.295205980" lon="4.067853460">
      </trkpt>
      <trkpt lat="48.295162610" lon="4.067942230">
      </trkpt>
      <trkpt lat="48.295150370" lon="4.067946290">
      </trkpt>
      <trkpt lat="48.295146380" lon="4.067935490">
      </trkpt>
      <trkpt lat="48.295166030" lon="4.067900900">
      </trkpt>
      <trkpt lat="48.295229030" lon="4.067860310">
      </trkpt>
      <trkpt lat="48.295240480" lon="4.067823800">
      </trkpt>
      <trkpt lat="48.295224840" lon="4.067805800">
      </trkpt>
      <trkpt lat="48.295202440" lon="4.067808690">
      </trkpt>
      <trkpt lat="48.294900500" lon="4.067269100">
      </trkpt>
      <trkpt lat="48.294901100" lon="4.067323800">
      </trkpt>
      <trkpt lat="48.294852500" lon="4.067301800">
      </trkpt>
      <trkpt lat="48.294805500" lon="4.067226800">
      </trkpt>
      <trkpt lat="48.294703200" lon="4.067244000">
      </trkpt>
      <trkpt lat="48.294782800" lon="4.067311200">
      </trkpt>
      <trkpt lat="48.294951700" lon="4.067963200">
      </trkpt>
      <trkpt lat="48.294872900" lon="4.067831100">
      </trkpt>
      <trkpt lat="48.294894900" lon="4.067753500">
      </trkpt>
      <trkpt lat="48.294913300" lon="4.067316200">
      </trkpt>
      <trkpt lat="48.295129800" lon="4.067153100">
      </trkpt>
      <trkpt lat="48.295147670" lon="4.067812090">
      </trkpt>
      <trkpt lat="48.295144170" lon="4.067804320">
      </trkpt>
      <trkpt lat="48.295135640" lon="4.067777400">
      </trkpt>
      <trkpt lat="48.294719700" lon="4.067133700">
      </trkpt>
      <trkpt lat="48.295129480" lon="4.067757940">
      </trkpt>
      <trkpt lat="48.295150530" lon="4.067740110">
      </trkpt>
      <trkpt lat="48.294754800" lon="4.067176000">
      </trkpt>
      <trkpt lat="48.294893800" lon="4.067317000">
      </trkpt>
      <trkpt lat="48.294887000" lon="4.067316100">
      </trkpt>
      <trkpt lat="48.294839000" lon="4.067435800">
      </trkpt>
      <trkpt lat="48.294741900" lon="4.067279700">
      </trkpt>
      <trkpt lat="48.294718900" lon="4.067129200">
      </trkpt>
      <trkpt lat="48.294750500" lon="4.067154900">
      </trkpt>
      <trkpt lat="48.294833200" lon="4.067534100">
      </trkpt>
      <trkpt lat="48.294867000" lon="4.067141200">
      </trkpt>
      <trkpt lat="48.294761400" lon="4.067095600">
      </trkpt>
      <trkpt lat="48.294498200" lon="4.067263600">
      </trkpt>
      <trkpt lat="48.294653100" lon="4.067480700">
      </trkpt>
      <trkpt lat="48.294634800" lon="4.067107200">
      </trkpt>
      <trkpt lat="48.294695500" lon="4.067117400">
      </trkpt>
      <trkpt lat="48.294851500" lon="4.067320500">
      </trkpt>
      <trkpt lat="48.294802100" lon="4.067002600">
      </trkpt>
      <trkpt lat="48.294846400" lon="4.067482800">
      </trkpt>
      <trkpt lat="48.294856100" lon="4.067431700">
      </trkpt>
      <trkpt lat="48.294789100" lon="4.067443200">
      </trkpt>
      <trkpt lat="48.294795700" lon="4.067493000">
      </trkpt>
      <trkpt lat="48.294809000" lon="4.067522000">
      </trkpt>
      <trkpt lat="48.294736300" lon="4.067394400">
      </trkpt>
      <trkpt lat="48.294789300" lon="4.067463900">
      </trkpt>
      <trkpt lat="48.294850200" lon="4.067553300">
      </trkpt>
      <trkpt lat="48.294830300" lon="4.067431000">
      </trkpt>
      <trkpt lat="48.294696200" lon="4.066961900">
      </trkpt>
      <trkpt lat="48.295176220" lon="4.067576460">
      </trkpt>
      <trkpt lat="48.295287900" lon="4.067694450">
      </trkpt>
      <trkpt lat="48.294815100" lon="4.067259300">
      </trkpt>
      <trkpt lat="48.295072500" lon="4.067348200">
      </trkpt>
      <trkpt lat="48.294797400" lon="4.067230400">
      </trkpt>
      <trkpt lat="48.294810400" lon="4.067216000">
      </trkpt>
      <trkpt lat="48.295019600" lon="4.067307700">
      </trkpt>
      <trkpt lat="48.294914300" lon="4.067267900">
      </trkpt>
      <trkpt lat="48.294791500" lon="4.067221700">
      </trkpt>
      <trkpt lat="48.295139660" lon="4.067558410">
      </trkpt>
      <trkpt lat="48.295202050" lon="4.067686930">
      </trkpt>
      <trkpt lat="48.295061330" lon="4.067880880">
      </trkpt>
      <trkpt lat="48.293745010" lon="4.068339560">
      </trkpt>
      <trkpt lat="48.291403800" lon="4.070968960">
      </trkpt>
      <trkpt lat="48.292189610" lon="4.074258600">
      </trkpt>
      <trkpt lat="48.289653470" lon="4.076398460">
      </trkpt>
      <trkpt lat="48.287063710" lon="4.077194170">
      </trkpt>
      <trkpt lat="48.286822200" lon="4.078649720">
      </trkpt>
      <trkpt lat="48.286023510" lon="4.082168320">
      </trkpt>
      <trkpt lat="48.283210340" lon="4.084233170">
      </trkpt>
      <trkpt lat="48.280341120" lon="4.086431100">
      </trkpt>
      <trkpt lat="48.277254820" lon="4.088141580">
      </trkpt>
      <trkpt lat="48.274449720" lon="4.088880440">
      </trkpt>
      <trkpt lat="48.271219890" lon="4.091452960">
      </trkpt>
      <trkpt lat="48.268762920" lon="4.094498650">
      </trkpt>
      <trkpt lat="48.268474640" lon="4.099110790">
      </trkpt>
      <trkpt lat="48.268799840" lon="4.104250670">
      </trkpt>
      <trkpt lat="48.266764370" lon="4.107924550">
      </trkpt>
      <trkpt lat="48.264833480" lon="4.110207970">
      </trkpt>
      <trkpt lat="48.264708720" lon="4.111854150">
      </trkpt>
      <trkpt lat="48.264969720" lon="4.116795680">
      </trkpt>
      <trkpt lat="48.265190880" lon="4.121897570">
      </trkpt>
      <trkpt lat="48.265628590" lon="4.128973160">
      </trkpt>
      <trkpt lat="48.266298370" lon="4.134023390">
      </trkpt>
      <trkpt lat="48.268163710" lon="4.138788690">
      </trkpt>
      <trkpt lat="48.269090160" lon="4.139960900">
      </trkpt>
      <trkpt lat="48.269328000" lon="4.140592300">
      </trkpt>
      <trkpt lat="48.270193940" lon="4.140814740">
      </trkpt>
      <trkpt lat="48.269239400" lon="4.140773100">
      </trkpt>
      <trkpt lat="48.271291340" lon="4.144655210">
      </trkpt>
      <trkpt lat="48.272241260" lon="4.149271020">
      </trkpt>
      <trkpt lat="48.272266810" lon="4.153962850">
      </trkpt>
      <trkpt lat="48.272360110" lon="4.156938310">
      </trkpt>
      <trkpt lat="48.272193780" lon="4.159270180">
      </trkpt>
      <trkpt lat="48.271367320" lon="4.164744900">
      </trkpt>
      <trkpt lat="48.269391920" lon="4.169577630">
      </trkpt>
      <trkpt lat="48.267751320" lon="4.174068940">
      </trkpt>
      <trkpt lat="48.267498940" lon="4.175986040">
      </trkpt>
      <trkpt lat="48.266492570" lon="4.179258220">
      </trkpt>
      <trkpt lat="48.264462770" lon="4.180882070">
      </trkpt>
      <trkpt lat="48.263903590" lon="4.186297560">
      </trkpt>
      <trkpt lat="48.264053420" lon="4.191486410">
      </trkpt>
      <trkpt lat="48.265478720" lon="4.196002470">
      </trkpt>
      <trkpt lat="48.266621750" lon="4.200794000">
      </trkpt>
      <trkpt lat="48.266559330" lon="4.206189870">
      </trkpt>
      <trkpt lat="48.265639990" lon="4.210699130">
      </trkpt>
      <trkpt lat="48.266571930" lon="4.215513440">
      </trkpt>
      <trkpt lat="48.267947140" lon="4.214539630">
      </trkpt>
      <trkpt lat="48.265983800" lon="4.218074700">
      </trkpt>
      <trkpt lat="48.265815250" lon="4.218266670">
      </trkpt>
      <trkpt lat="48.265690500" lon="4.217917230">
      </trkpt>
      <trkpt lat="48.266276970" lon="4.219021830">
      </trkpt>
      <trkpt lat="48.266291230" lon="4.223111870">
      </trkpt>
      <trkpt lat="48.267176290" lon="4.226541070">
      </trkpt>
      <trkpt lat="48.269085090" lon="4.229242960">
      </trkpt>
      <trkpt lat="48.271980020" lon="4.230755440">
      </trkpt>
      <trkpt lat="48.272463740" lon="4.234959850">
      </trkpt>
      <trkpt lat="48.271320410" lon="4.239649160">
      </trkpt>
      <trkpt lat="48.270069560" lon="4.244735530">
      </trkpt>
      <trkpt lat="48.270234050" lon="4.249995030">
      </trkpt>
      <trkpt lat="48.271068420" lon="4.254951220">
      </trkpt>
      <trkpt lat="48.271832240" lon="4.259033520">
      </trkpt>
      <trkpt lat="48.275030590" lon="4.260195660">
      </trkpt>
      <trkpt lat="48.275102700" lon="4.260067500">
      </trkpt>
      <trkpt lat="48.276567250" lon="4.264002910">
      </trkpt>
      <trkpt lat="48.278629000" lon="4.268027960">
      </trkpt>
      <trkpt lat="48.281038920" lon="4.271693170">
      </trkpt>
      <trkpt lat="48.283412830" lon="4.275101070">
      </trkpt>
      <trkpt lat="48.287014720" lon="4.279292250">
      </trkpt>
      <trkpt lat="48.289548390" lon="4.282293770">
      </trkpt>
      <trkpt lat="48.290331900" lon="4.282217450">
      </trkpt>
      <trkpt lat="48.290258730" lon="4.282409810">
      </trkpt>
      <trkpt lat="48.290050530" lon="4.282684000">
      </trkpt>
      <trkpt lat="48.290092750" lon="4.282690840">
      </trkpt>
      <trkpt lat="48.290084200" lon="4.282739880">
      </trkpt>
      <trkpt lat="48.290084840" lon="4.282738760">
      </trkpt>
      <trkpt lat="48.290086710" lon="4.282733420">
      </trkpt>
      <trkpt lat="48.290088600" lon="4.282733300">
      </trkpt>
      <trkpt lat="48.290072840" lon="4.282633690">
      </trkpt>
      <trkpt lat="48.291046460" lon="4.284142800">
      </trkpt>
      <trkpt lat="48.293752340" lon="4.287209300">
      </trkpt>
      <trkpt lat="48.296147440" lon="4.290022910">
      </trkpt>
      <trkpt lat="48.298452660" lon="4.294376850">
      </trkpt>
      <trkpt lat="48.299018500" lon="4.299472190">
      </trkpt>
      <trkpt lat="48.299457460" lon="4.303908740">
      </trkpt>
      <trkpt lat="48.300729690" lon="4.307555320">
      </trkpt>
      <trkpt lat="48.302757410" lon="4.311107130">
      </trkpt>
      <trkpt lat="48.304826400" lon="4.315167260">
      </trkpt>
      <trkpt lat="48.305073770" lon="4.315679320">
      </trkpt>
      <trkpt lat="48.305494330" lon="4.317638960">
      </trkpt>
      <trkpt lat="48.306165440" lon="4.320166210">
      </trkpt>
      <trkpt lat="48.308174160" lon="4.322576860">
      </trkpt>
      <trkpt lat="48.306895280" lon="4.327346630">
      </trkpt>
      <trkpt lat="48.304028250" lon="4.331046420">
      </trkpt>
      <trkpt lat="48.301757670" lon="4.335200120">
      </trkpt>
      <trkpt lat="48.300849090" lon="4.339410430">
      </trkpt>
      <trkpt lat="48.300290520" lon="4.343308670">
      </trkpt>
      <trkpt lat="48.299993960" lon="4.347815920">
      </trkpt>
      <trkpt lat="48.299385770" lon="4.351535080">
      </trkpt>
      <trkpt lat="48.301071870" lon="4.354220140">
      </trkpt>
      <trkpt lat="48.301633740" lon="4.358558890">
      </trkpt>
      <trkpt lat="48.301633470" lon="4.362785100">
      </trkpt>
      <trkpt lat="48.300259730" lon="4.366385740">
      </trkpt>
      <trkpt lat="48.300886150" lon="4.366217880">
      </trkpt>
      <trkpt lat="48.304088400" lon="4.365526010">
      </trkpt>
      <trkpt lat="48.307345950" lon="4.365861920">
      </trkpt>
      <trkpt lat="48.308332160" lon="4.367626200">
      </trkpt>
      <trkpt lat="48.311351220" lon="4.367442610">
      </trkpt>
      <trkpt lat="48.313680530" lon="4.368595720">
      </trkpt>
      <trkpt lat="48.313637810" lon="4.368601730">
      </trkpt>
      <trkpt lat="48.313952650" lon="4.368783020">
      </trkpt>
      <trkpt lat="48.315981530" lon="4.371491030">
      </trkpt>
      <trkpt lat="48.317604030" lon="4.375306350">
      </trkpt>
      <trkpt lat="48.319940340" lon="4.378120300">
      </trkpt>
      <trkpt lat="48.322945170" lon="4.379274060">
      </trkpt>
      <trkpt lat="48.325396910" lon="4.380462230">
      </trkpt>
      <trkpt lat="48.328517100" lon="4.381616120">
      </trkpt>
      <trkpt lat="48.330598420" lon="4.384129220">
      </trkpt>
      <trkpt lat="48.332296730" lon="4.389221350">
      </trkpt>
      <trkpt lat="48.334821790" lon="4.391330470">
      </trkpt>
      <trkpt lat="48.337330030" lon="4.392121270">
      </trkpt>
      <trkpt lat="48.340014500" lon="4.393533810">
      </trkpt>
      <trkpt lat="48.341057770" lon="4.397547150">
      </trkpt>
      <trkpt lat="48.341807110" lon="4.401790000">
      </trkpt>
      <trkpt lat="48.342705090" lon="4.406997520">
      </trkpt>
      <trkpt lat="48.343447710" lon="4.412918100">
      </trkpt>
      <trkpt lat="48.343122910" lon="4.419098270">
      </trkpt>
      <trkpt lat="48.341137120" lon="4.425579610">
      </trkpt>
      <trkpt lat="48.340563120" lon="4.432033140">
      </trkpt>
      <trkpt lat="48.343081710" lon="4.436810670">
      </trkpt>
      <trkpt lat="48.346374870" lon="4.439772950">
      </trkpt>
      <trkpt lat="48.347931670" lon="4.442956590">
      </trkpt>
      <trkpt lat="48.348373710" lon="4.447764960">
      </trkpt>
      <trkpt lat="48.348857540" lon="4.452905100">
      </trkpt>
      <trkpt lat="48.348991500" lon="4.454949140">
      </trkpt>
      <trkpt lat="48.348972120" lon="4.454919320">
      </trkpt>
      <trkpt lat="48.348987720" lon="4.454901540">
      </trkpt>
      <trkpt lat="48.349029730" lon="4.454890870">
      </trkpt>
      <trkpt lat="48.349013550" lon="4.454918220">
      </trkpt>
      <trkpt lat="48.349226470" lon="4.455693040">
      </trkpt>
      <trkpt lat="48.348935620" lon="4.454961800">
      </trkpt>
      <trkpt lat="48.348977450" lon="4.454937320">
      </trkpt>
      <trkpt lat="48.349566540" lon="4.459151810">
      </trkpt>
      <trkpt lat="48.349723080" lon="4.464401910">
      </trkpt>
      <trkpt lat="48.348017350" lon="4.467922550">
      </trkpt>
      <trkpt lat="48.346372060" lon="4.471345960">
      </trkpt>
      <trkpt lat="48.346598110" lon="4.476455500">
      </trkpt>
      <trkpt lat="48.346238710" lon="4.482089370">
      </trkpt>
      <trkpt lat="48.346214810" lon="4.486460050">
      </trkpt>
      <trkpt lat="48.347822890" lon="4.489777860">
      </trkpt>
      <trkpt lat="48.350399860" lon="4.492559930">
      </trkpt>
      <trkpt lat="48.352602010" lon="4.495440500">
      </trkpt>
      <trkpt lat="48.353367900" lon="4.495965900">
      </trkpt>
      <trkpt lat="48.355793600" lon="4.501929300">
      </trkpt>
      <trkpt lat="48.356137290" lon="4.507621230">
      </trkpt>
      <trkpt lat="48.355500620" lon="4.512497890">
      </trkpt>
      <trkpt lat="48.354525770" lon="4.516876520">
      </trkpt>
      <trkpt lat="48.352767500" lon="4.520759480">
      </trkpt>
      <trkpt lat="48.350648520" lon="4.524144560">
      </trkpt>
      <trkpt lat="48.349577700" lon="4.525952140">
      </trkpt>
      <trkpt lat="48.349600040" lon="4.525973950">
      </trkpt>
      <trkpt lat="48.349152250" lon="4.526671480">
      </trkpt>
      <trkpt lat="48.348632280" lon="4.530320490">
      </trkpt>
      <trkpt lat="48.348465610" lon="4.534655430">
      </trkpt>
      <trkpt lat="48.346988120" lon="4.538051460">
      </trkpt>
      <trkpt lat="48.346811260" lon="4.542572380">
      </trkpt>
      <trkpt lat="48.346489700" lon="4.548228480">
      </trkpt>
      <trkpt lat="48.346136700" lon="4.553972940">
      </trkpt>
      <trkpt lat="48.344897810" lon="4.556885710">
      </trkpt>
      <trkpt lat="48.345083310" lon="4.556867590">
      </trkpt>
      <trkpt lat="48.345042290" lon="4.556841640">
      </trkpt>
      <trkpt lat="48.344820580" lon="4.556745680">
      </trkpt>
      <trkpt lat="48.344819800" lon="4.556768030">
      </trkpt>
      <trkpt lat="48.344832710" lon="4.556788950">
      </trkpt>
      <trkpt lat="48.344920160" lon="4.556861900">
      </trkpt>
      <trkpt lat="48.344945170" lon="4.556836570">
      </trkpt>
      <trkpt lat="48.344690040" lon="4.556849690">
      </trkpt>
      <trkpt lat="48.344833230" lon="4.556789370">
      </trkpt>
      <trkpt lat="48.344811990" lon="4.556776790">
      </trkpt>
      <trkpt lat="48.344830110" lon="4.556806510">
      </trkpt>
      <trkpt lat="48.344864290" lon="4.556816430">
      </trkpt>
      <trkpt lat="48.344798590" lon="4.556846670">
      </trkpt>
      <trkpt lat="48.343045000" lon="4.558398700">
      </trkpt>
      <trkpt lat="48.339377660" lon="4.560523980">
      </trkpt>
      <trkpt lat="48.335290860" lon="4.563234860">
      </trkpt>
      <trkpt lat="48.332379590" lon="4.565177530">
      </trkpt>
      <trkpt lat="48.328239460" lon="4.568030690">
      </trkpt>
      <trkpt lat="48.323759240" lon="4.570958340">
      </trkpt>
      <trkpt lat="48.319169390" lon="4.573901140">
      </trkpt>
      <trkpt lat="48.315066040" lon="4.576701980">
      </trkpt>
      <trkpt lat="48.313651530" lon="4.577573560">
      </trkpt>
      <trkpt lat="48.313687060" lon="4.577564340">
      </trkpt>
      <trkpt lat="48.312013770" lon="4.578692320">
      </trkpt>
      <trkpt lat="48.308834630" lon="4.580821930">
      </trkpt>
      <trkpt lat="48.305518980" lon="4.583161960">
      </trkpt>
      <trkpt lat="48.305321300" lon="4.583536100">
      </trkpt>
      <trkpt lat="48.299974040" lon="4.586033380">
      </trkpt>
      <trkpt lat="48.297676900" lon="4.587255830">
      </trkpt>
      <trkpt lat="48.295444970" lon="4.588819580">
      </trkpt>
      <trkpt lat="48.293576070" lon="4.590491690">
      </trkpt>
      <trkpt lat="48.290535720" lon="4.593089220">
      </trkpt>
      <trkpt lat="48.288093440" lon="4.595688070">
      </trkpt>
      <trkpt lat="48.285327370" lon="4.599112350">
      </trkpt>
      <trkpt lat="48.284277100" lon="4.600350500">
      </trkpt>
      <trkpt lat="48.278506870" lon="4.608713850">
      </trkpt>
      <trkpt lat="48.277014050" lon="4.613171910">
      </trkpt>
      <trkpt lat="48.274372180" lon="4.618393630">
      </trkpt>
      <trkpt lat="48.272979080" lon="4.622292110">
      </trkpt>
      <trkpt lat="48.272542160" lon="4.626444350">
      </trkpt>
      <trkpt lat="48.271904090" lon="4.630694990">
      </trkpt>
      <trkpt lat="48.271168120" lon="4.635123010">
      </trkpt>
      <trkpt lat="48.270237510" lon="4.640310980">
      </trkpt>
      <trkpt lat="48.269194500" lon="4.644601800">
      </trkpt>
      <trkpt lat="48.267834490" lon="4.649969830">
      </trkpt>
      <trkpt lat="48.266580790" lon="4.653106640">
      </trkpt>
      <trkpt lat="48.265165980" lon="4.656948580">
      </trkpt>
      <trkpt lat="48.264157160" lon="4.660283330">
      </trkpt>
      <trkpt lat="48.262730000" lon="4.664392830">
      </trkpt>
      <trkpt lat="48.261955300" lon="4.667187900">
      </trkpt>
      <trkpt lat="48.258189150" lon="4.675266550">
      </trkpt>
      <trkpt lat="48.256990240" lon="4.677698160">
      </trkpt>
      <trkpt lat="48.254868040" lon="4.681881100">
      </trkpt>
      <trkpt lat="48.251289610" lon="4.686041210">
      </trkpt>
      <trkpt lat="48.245724330" lon="4.692279210">
      </trkpt>
      <trkpt lat="48.241626890" lon="4.696632450">
      </trkpt>
      <trkpt lat="48.238704400" lon="4.699633500">
      </trkpt>
      <trkpt lat="48.235828680" lon="4.703076920">
      </trkpt>
      <trkpt lat="48.235009700" lon="4.705138490">
      </trkpt>
      <trkpt lat="48.235236700" lon="4.705241900">
      </trkpt>
      <trkpt lat="48.235164800" lon="4.705087600">
      </trkpt>
      <trkpt lat="48.235120650" lon="4.705068270">
      </trkpt>
      <trkpt lat="48.235143920" lon="4.705063010">
      </trkpt>
      <trkpt lat="48.235134600" lon="4.705119940">
      </trkpt>
      <trkpt lat="48.235074500" lon="4.705022600">
      </trkpt>
      <trkpt lat="48.233845450" lon="4.706078170">
      </trkpt>
      <trkpt lat="48.231723000" lon="4.709148090">
      </trkpt>
      <trkpt lat="48.230520700" lon="4.710359300">
      </trkpt>
    </trkseg>
  </trk>
</gpx>
